out_pickles/recidivism-setcover-logistic-48.txt
[2, 2, 2, 2, 2, 2, 2, 2, 2, 2, 4, 4, 3, 4, 4]
704
Train 0.6273291925465838
Validation 0.6321022727272727
Test 0.6
generate ref class for
48
R=
259
X=
1
X=
2.0
X=
3.0
X=
4.0
X=
5.0
X=
6.0
X=
7.0
X=
8.0
X=
9.0
X=
10.0
X=
11.0
X=
13.0
X=
15.0
X=
17.0
X=
19.0
X=
21.0
X=
24.0
X=
27.0
X=
30.0
X=
33.0
Y=
77.4513208208
ratio
0.0
err
0.367816091954
kdnf
[(0, 1, 2, 1, 4, 1)]
X=
37.0
Y=
78.2811254446
ratio
0.0
err
0.367816091954
kdnf
[(0, 1, 2, 1, 4, 1)]
X=
41.0
Y=
79.0455050333
ratio
0.0
err
0.367816091954
kdnf
[(0, 1, 2, 1, 4, 1)]
X=
46.0
Y=
79.9657357113
ratio
0.0
err
0.367816091954
kdnf
[(0, 1, 2, 1, 4, 1)]
X=
51.0
Y=
81.1298523641
ratio
0.0
err
0.367816091954
kdnf
[(0, 1, 2, 1, 4, 1)]
X=
57.0
Y=
82.2936816594
ratio
0.0
err
0.367816091954
kdnf
[(0, 1, 2, 1, 4, 1)]
X=
63.0
Y=
83.3311837176
ratio
0.0
err
0.367816091954
kdnf
[(0, 1, 2, 1, 4, 1)]
X=
70.0
Y=
83.8910784778
ratio
0.0
err
0.367816091954
kdnf
[(0, 1, 2, 1, 4, 1)]
X=
77.0
Y=
84.7686380086
ratio
0.0
err
0.367816091954
kdnf
[(0, 1, 2, 1, 4, 1)]
X=
85.0
Y=
85.6118331309
ratio
0.0
err
0.367816091954
kdnf
[(0, 1, 2, 1, 4, 1)]
X=
94.0
Y=
86.6395292584
ratio
0.0
err
0.367816091954
kdnf
[(0, 1, 2, 1, 4, 1)]
X=
104.0
Y=
87.9313677943
ratio
0.0
err
0.367816091954
kdnf
[(0, 1, 2, 1, 4, 1)]
X=
115.0
Y=
89.5009683058
ratio
0.0
err
0.367816091954
kdnf
[(0, 1, 2, 1, 4, 1)]
X=
127.0
Y=
90.5967360517
ratio
0.0
err
0.367816091954
kdnf
[(0, 1, 2, 1, 4, 1)]
X=
140.0
Y=
91.2610896728
ratio
0.0
err
0.367816091954
kdnf
[(0, 1, 2, 1, 4, 1)]
X=
154.0
Y=
91.8901408965
ratio
0.0
err
0.367816091954
kdnf
[(0, 1, 2, 1, 4, 1)]
X=
170.0
Y=
92.2570057265
ratio
0.0
err
0.367816091954
kdnf
[(0, 1, 2, 1, 4, 1)]
X=
188.0
Y=
92.9750876802
ratio
0.0
err
0.367816091954
kdnf
[(0, 1, 2, 1, 4, 1)]
X=
207.0
Y=
93.2565641799
ratio
0.0
err
0.367816091954
kdnf
[(0, 1, 2, 1, 4, 1)]
X=
228.0
Y=
93.5214586954
ratio
0.0
err
0.367816091954
kdnf
[(0, 1, 2, 1, 4, 1)]
X=
251.0
Y=
93.5439363935
ratio
0.0
err
0.367816091954
kdnf
[(0, 1, 2, 1, 4, 1)]
exp
[(0, 1, 2, 1, 4, 1)]
0.572815533981 0.14609929078
