out_pickles/recidivism-setcover-nn-167.txt
[2, 2, 2, 2, 2, 2, 2, 2, 2, 2, 4, 4, 3, 4, 4]
704
Train 0.8044365572315882
Validation 0.6491477272727273
Test 0.675177304964539
generate ref class for
167
R=
247
X=
1
X=
2.0
X=
3.0
X=
4.0
X=
5.0
X=
6.0
X=
7.0
X=
8.0
X=
9.0
X=
10.0
X=
11.0
X=
13.0
X=
15.0
X=
17.0
X=
19.0
X=
21.0
X=
24.0
X=
27.0
X=
30.0
X=
33.0
X=
37.0
Y=
78.2596368589
ratio
0.0
err
0.397260273973
kdnf
[(0, 1, 6, 0, 8, 0)]
X=
41.0
Y=
79.0942517824
ratio
0.0
err
0.397260273973
kdnf
[(0, 1, 6, 0, 8, 0)]
X=
46.0
Y=
80.3320976981
ratio
0.0
err
0.397260273973
kdnf
[(0, 1, 6, 0, 8, 0)]
X=
51.0
Y=
81.6773817747
ratio
0.0
err
0.397260273973
kdnf
[(0, 1, 6, 0, 8, 0)]
X=
57.0
Y=
82.29538481
ratio
0.0
err
0.397260273973
kdnf
[(0, 1, 6, 0, 8, 0)]
X=
63.0
Y=
83.5587789228
ratio
0.0
err
0.397260273973
kdnf
[(0, 1, 6, 0, 8, 0)]
X=
70.0
Y=
84.3966240891
ratio
0.0
err
0.397260273973
kdnf
[(0, 1, 6, 0, 8, 0)]
X=
77.0
Y=
85.4274544625
ratio
0.0
err
0.397260273973
kdnf
[(0, 1, 6, 0, 8, 0)]
X=
85.0
Y=
86.5505079824
ratio
0.0
err
0.322314049587
kdnf
[(0, 1, 2, 0, 4, 0)]
X=
94.0
Y=
87.2247910717
ratio
0.0
err
0.322314049587
kdnf
[(0, 1, 2, 0, 4, 0)]
X=
104.0
Y=
88.637055833
ratio
0.0
err
0.322314049587
kdnf
[(0, 1, 2, 0, 4, 0)]
X=
115.0
Y=
89.8315701762
ratio
0.0
err
0.322314049587
kdnf
[(0, 1, 2, 0, 4, 0)]
X=
127.0
Y=
90.7489950347
ratio
0.0
err
0.322314049587
kdnf
[(0, 1, 2, 0, 4, 0)]
X=
140.0
Y=
91.4528648207
ratio
0.0
err
0.322314049587
kdnf
[(0, 1, 2, 0, 4, 0)]
X=
154.0
Y=
91.9968499002
ratio
0.0
err
0.322314049587
kdnf
[(0, 1, 2, 0, 4, 0)]
X=
170.0
Y=
92.5126424861
ratio
0.0
err
0.322314049587
kdnf
[(0, 1, 2, 0, 4, 0)]
X=
188.0
Y=
93.111416518
ratio
0.0
err
0.322314049587
kdnf
[(0, 1, 2, 0, 4, 0)]
X=
207.0
Y=
93.3219196177
ratio
0.0
err
0.322314049587
kdnf
[(0, 1, 2, 0, 4, 0)]
X=
228.0
Y=
93.5439363935
ratio
0.0
err
0.322314049587
kdnf
[(0, 1, 2, 0, 4, 0)]
exp
[(0, 1, 2, 0, 4, 0)]
0.663755458515 0.324822695035
