[(0, 0, 2, 1, 4, 1), (0, 1, 2, 1, 4, 1), (0, 0, 4, 1, 6, 1), (0, 1, 4, 1, 6, 1), (0, 0, 6, 0, 8, 0), (0, 1, 6, 0, 8, 0), (0, 0, 8, 0, 10, 0), (0, 1, 8, 0, 10, 0), (0, 0, 16, 1, 18, 1), (0, 1, 16, 1, 18, 1), (0, 0, 18, 0, 20, 0), (0, 1, 18, 0, 20, 0), (0, 0, 21, 0, 24, 0), (0, 1, 21, 0, 24, 0), (0, 0, 23, 0, 24, 0), (0, 1, 23, 0, 24, 0), (0, 0, 24, 0, 28, 0), (0, 1, 24, 0, 28, 0), (0, 0, 26, 0, 28, 0), (0, 1, 26, 0, 28, 0), (0, 0, 27, 0, 28, 0), (0, 1, 27, 0, 28, 0), (0, 0, 29, 0, 31, 0), (0, 1, 29, 0, 31, 0), (0, 1, 32, 0, 35, 0), (10, 1, 20, 0, 24, 0), (10, 1, 32, 0, 35, 0), (10, 1, 34, 0, 35, 0), (12, 1, 32, 0, 35, 0), (14, 0, 31, 0, 35, 0), (28, 0, 32, 0, 35, 0), (28, 0, 33, 0, 35, 0)]
0.686098654709
0.948936170213
